{
  "project_info": {
    "project_number": "461680469254",
    "firebase_url": "https://ivideo-cfa68.firebaseio.com",
    "project_id": "ivideo-cfa68",
    "storage_bucket": "ivideo-cfa68.appspot.com"
  },
  "client": [
    {
      "client_info": {
        "mobilesdk_app_id": "1:461680469254:android:ba5b90e55d93098c4e6a87",
        "android_client_info": {
          "package_name": "com.ss.ivideo"
        }
      },
      "oauth_client": [
        {
          "client_id": "461680469254-aoje73jb9vkd82q5sp7j94o5l2kdg7dk.apps.googleusercontent.com",
          "client_type": 3
        }
      ],
      "api_key": [
        {
          "current_key": "AIzaSyAGWRfx8VgkF3i60cv8ovxe9LUEie7_X_M"
        }
      ],
      "services": {
        "appinvite_service": {
          "other_platform_oauth_client": [
            {
              "client_id": "461680469254-aoje73jb9vkd82q5sp7j94o5l2kdg7dk.apps.googleusercontent.com",
              "client_type": 3
            }
          ]
        }
      }
    }
  ],
  "configuration_version": "1"
}